  {
      "data": [{
          "key1": "PoseLandmarkType.leftWrist",
          "key2": "PoseLandmarkType.leftAnkle",
          "jarak": 315,
          "key3": "PoseLandmarkType.leftFootIndex",
          "key4": "PoseLandmarkType.leftHeel",
          "jarak2": 40
      }]
  }