{
    "data": [{
            "key": "PoseLandmarkType.leftElbow",
            "no": 1,
            "value_x": 0.6,
            "value_y": 0.7,
            "akar": 0.92
        },
        {
            "key": "PoseLandmarkType.leftShoulder",
            "no": 2,
            "value_x": 0.63,
            "value_y": 0.63,
            "akar": 0.89
        },
        {
            "key": "PoseLandmarkType.leftWrist",
            "no": 3,
            "value_x": 0.5,
            "value_y": 0.8,
            "akar": 0.94
        },
        {
            "key": "PoseLandmarkType.leftHip",
            "no": 4,
            "value_x": 0.4,
            "value_y": 0.7,
            "akar": 0.8
        },
        {
            "key": "PoseLandmarkType.leftKnee",
            "no": 5,
            "value_x": 0.2,
            "value_y": 0.8,
            "akar": 0.82
        },
        {
            "key": "PoseLandmarkType.leftAnkle",
            "no": 6,
            "value_x": 0.19,
            "value_y": 0.8,
            "akar": 0.82
        }
    ]
}