   {
       "data": [{
           "key1": "PoseLandmarkType.leftWrist",
           "key2": "PoseLandmarkType.leftAnkle",
           "jarak": 140,
           "key3": "PoseLandmarkType.leftShoulder",
           "key4": "PoseLandmarkType.leftHip",
           "jarak2": 140
       }]
   }