{

    "data": [{
            "key": "PoseLandmarkType.leftElbow",
            "no": 1,
            "value_x": 0.3,
            "value_y": 0.5,
            "akar": 0.71
        },
        {
            "key": "PoseLandmarkType.leftAnkle",
            "no": 2,
            "value_x": 0.3,
            "value_y": 0.5,
            "akar": 0.75
        },
        {
            "key": "PoseLandmarkType.leftWrist",
            "no": 3,
            "value_x": 0.3,
            "value_y": 0.7,
            "akar": 0.73
        },
        {
            "key": "PoseLandmarkType.leftShoulder",
            "no": 4,
            "value_x": 0.3,
            "value_y": 0.4,
            "akar": 0.74
        },
        {
            "key": "PoseLandmarkType.leftHip",
            "no": 5,
            "value_x": 0.4,
            "value_y": 0.4,
            "akar": 0.78
        }
    ]
}