  {
      "data": [{
          "key1": "PoseLandmarkType.rightHeel",
          "key2": "PoseLandmarkType.leftFootIndex",
          "jarak": 357,
          "batas2_jarak2": 377,
          "batas3_jarak3": 397,
          "batas4_jarak4": 417,
          "batas5_jarak5": 437,
          "batas6_jarak6": 457,
          "batas7_jarak7": 477,
          "key3": "PoseLandmarkType.leftIndex",
          "key4": "PoseLandmarkType.rightIndex",
          "jarak2": 10,
          "jarak3": 30,
          "jarak4": 50,
          "jarak5": 70,
          "jarak6": 90,
          "jarak7": 100,
          "jarak8": 200

      }]
  }