  {
      "data": [{
          "key1": "PoseLandmarkType.rightHeel",
          "key2": "PoseLandmarkType.leftFootIndex",
          "jarak": 296,
          "batas2_jarak2": 326,
          "batas3_jarak3": 356,
          "batas4_jarak4": 376,
          "batas5_jarak5": 396,
          "batas6_jarak6": 416,
          "batas7_jarak7": 436,
          "key3": "PoseLandmarkType.rightHeel",
          "key4": "PoseLandmarkType.rightIndex",
          "jarak2": 550,
          "jarak3": 570,
          "jarak4": 590,
          "jarak5": 610,
          "jarak6": 630,
          "jarak7": 650,
          "jarak8": 670

      }]
  }